4 prac_day_four – Hand-in 1
…
10 Question 6

Below are the routes that more than one airline flies

#Routes that more than one airline flies

mult_routes <- flights |> 
  mutate(route = paste(origin, dest)) |> 
  group_by(route) |> 
  summarise(count = n_distinct(carrier)) |> 
  filter(count > 1)

mult_routes

# A tibble: 128 × 2
   route   count
   <chr>   <int>
 1 EWR ATL     4
 2 EWR AUS     2
 3 EWR BDL     2
 4 EWR BNA     2
 5 EWR BOS     3
 6 EWR BWI     2
 7 EWR CHS     2
 8 EWR CLE     2
 9 EWR CLT     3
10 EWR CVG     2
# ℹ 118 more rows

Below are the delays for each airline on each such route

delay.route.airline <-  flights |> 
  mutate(route = paste(origin, dest)) |> 
  inner_join(mult_routes) |> 
  select(carrier, route, arr_delay) |> 
  left_join(airlines) |> 
  group_by(route, name) |> 
  summarise(Average_delay = mean(arr_delay, na.rm = TRUE)) 

delay.route.airline

# A tibble: 343 × 3
# Groups:   route [128]
   route   name                     Average_delay
   <chr>   <chr>                            <dbl>
 1 EWR ATL Delta Air Lines Inc.             10.0 
 2 EWR ATL Endeavor Air Inc.                -6.25
 3 EWR ATL ExpressJet Airlines Inc.         19.5 
 4 EWR ATL United Air Lines Inc.            10.5 
 5 EWR AUS Southwest Airlines Co.          -11.2 
 6 EWR AUS United Air Lines Inc.             4.28
 7 EWR BDL ExpressJet Airlines Inc.          6.78
 8 EWR BDL United Air Lines Inc.            22.6 
 9 EWR BNA ExpressJet Airlines Inc.         17.7 
10 EWR BNA Southwest Airlines Co.           -2.13
# ℹ 333 more rows
…
worst <- delay.route.airline |> 
  group_by(route) |> 
  summarise(Average_delay = max(Average_delay, na.rm = TRUE)) |> 
  left_join(delay.route.airline) |> 
  rename(Worst = Average_delay)

tbl <- best |> 
  inner_join(worst, by = "route")
tbl

# A tibble: 128 × 5
   route      Best name.x                   Worst name.y                  
   <chr>     <dbl> <chr>                    <dbl> <chr>                   
 1 EWR ATL  -6.25  Endeavor Air Inc.        19.5  ExpressJet Airlines Inc.
 2 EWR AUS -11.2   Southwest Airlines Co.    4.28 United Air Lines Inc.   
 3 EWR BDL   6.78  ExpressJet Airlines Inc. 22.6  United Air Lines Inc.   
 4 EWR BNA  -2.13  Southwest Airlines Co.   17.7  ExpressJet Airlines Inc.
 5 EWR BOS  -4.01  ExpressJet Airlines Inc.  6.87 JetBlue Airways         
 6 EWR BWI   5.95  Southwest Airlines Co.   20.1  ExpressJet Airlines Inc.
 7 EWR CHS -14     United Air Lines Inc.    16.2  ExpressJet Airlines Inc.
 8 EWR CLE  -3.71  ExpressJet Airlines Inc.  5.97 United Air Lines Inc.   
 9 EWR CLT   0.920 US Airways Inc.          20.5  ExpressJet Airlines Inc.
10 EWR CVG   1.40  Endeavor Air Inc.        21.2  ExpressJet Airlines Inc.
# ℹ 118 more rows

Clearly the airline with the worst delay is ExpressJet Airlines Inc. and the best is Endeavor Air Inc.

tbl |> 
  mutate(diff = Worst - Best) |> 
  arrange(-diff) |> 
  select(route, diff)

# A tibble: 128 × 2
   route    diff
   <chr>   <dbl>
 1 JFK ATL 127. 
 2 LGA XNA 112. 
 3 LGA ORD 108. 
 4 LGA MSY 102. 
 5 EWR STL  96.4
 6 LGA MSP  95.7
 7 EWR DTW  67.5
 8 LGA ATL  56.7
 9 LGA PBI  53.3
10 LGA IND  47.2
# ℹ 118 more rows
…
